<svg width="24" height="24" viewBox="0 0 24 24" fill="none" xmlns="http://www.w3.org/2000/svg">
<path fill-rule="evenodd" clip-rule="evenodd" d="M19 3H5C3.9 3 3 3.9 3 5V19C3 20.1 3.9 21 5 21H19C20.1 21 21 20.1 21 19V5C21 3.9 20.1 3 19 3ZM16.2426 6.34315L12 10.5858L7.75736 6.34315L6.34315 7.75736L10.5858 12L6.34315 16.2426L7.75736 17.6569L12 13.4142L16.2426 17.6569L17.6569 16.2426L13.4142 12L17.6569 7.75736L16.2426 6.34315Z" fill="#970000"/>
</svg>
